Library\Bee\artifacts\mvdfrm\UnityEditor.Graphs.dll_B4E2C4BC0210DFB2.mvfrm
Library\Bee\artifacts\mvdfrm\UnityEditor.CoreModule.dll_5D1C293FA78BD580.mvfrm
Library\Bee\artifacts\mvdfrm\UnityEditor.DeviceSimulatorModule.dll_67D2282F036BF041.mvfrm
Library\Bee\artifacts\mvdfrm\UnityEditor.DiagnosticsModule.dll_8A95B0FBEC88AA4F.mvfrm
Library\Bee\artifacts\mvdfrm\UnityEditor.dll_A44CF58866D0DC15.mvfrm
Library\Bee\artifacts\mvdfrm\UnityEditor.GraphViewModule.dll_053DE9DF2EB51A46.mvfrm
Library\Bee\artifacts\mvdfrm\UnityEditor.PackageManagerUIModule.dll_24A9DF83B99522DC.mvfrm
Library\Bee\artifacts\mvdfrm\UnityEditor.QuickSearchModule.dll_15A53209455FA6A8.mvfrm
Library\Bee\artifacts\mvdfrm\UnityEditor.SceneTemplateModule.dll_0B3623B48F99CA29.mvfrm
Library\Bee\artifacts\mvdfrm\UnityEditor.TextCoreFontEngineModule.dll_708C9C838F7FF6FE.mvfrm
Library\Bee\artifacts\mvdfrm\UnityEditor.TextCoreTextEngineModule.dll_B874D2F51F03B01C.mvfrm
Library\Bee\artifacts\mvdfrm\UnityEditor.UIBuilderModule.dll_59C696FBA16D937A.mvfrm
Library\Bee\artifacts\mvdfrm\UnityEditor.UIElementsModule.dll_B9E7F0BCE0FF34BC.mvfrm
Library\Bee\artifacts\mvdfrm\UnityEditor.UIElementsSamplesModule.dll_746D6A575E0E0C71.mvfrm
Library\Bee\artifacts\mvdfrm\UnityEditor.UIServiceModule.dll_92B8A85E8AA4E394.mvfrm
Library\Bee\artifacts\mvdfrm\UnityEditor.UnityConnectModule.dll_5BA4CB0FBD3B4436.mvfrm
Library\Bee\artifacts\mvdfrm\UnityEngine.AccessibilityModule.dll_3DDB8F4B900FF1C6.mvfrm
Library\Bee\artifacts\mvdfrm\UnityEngine.AIModule.dll_B1C6AC7333F9F3D4.mvfrm
Library\Bee\artifacts\mvdfrm\UnityEngine.AndroidJNIModule.dll_3830D9902A1EA392.mvfrm
Library\Bee\artifacts\mvdfrm\UnityEngine.AnimationModule.dll_D3C366080911EEEC.mvfrm
Library\Bee\artifacts\mvdfrm\UnityEngine.ARModule.dll_6B3971769117529D.mvfrm
Library\Bee\artifacts\mvdfrm\UnityEngine.AssetBundleModule.dll_598E64FAA7C65B9A.mvfrm
Library\Bee\artifacts\mvdfrm\UnityEngine.AudioModule.dll_79A87E1512C3B4DE.mvfrm
Library\Bee\artifacts\mvdfrm\UnityEngine.ClothModule.dll_E090DB0FECE093C2.mvfrm
Library\Bee\artifacts\mvdfrm\UnityEngine.ClusterInputModule.dll_DB4140256EC316FC.mvfrm
Library\Bee\artifacts\mvdfrm\UnityEngine.ClusterRendererModule.dll_6D7EEAA07326FDC5.mvfrm
Library\Bee\artifacts\mvdfrm\UnityEngine.CoreModule.dll_803CFC924F9140AB.mvfrm
Library\Bee\artifacts\mvdfrm\UnityEngine.CrashReportingModule.dll_4F2E4512D96F6D23.mvfrm
Library\Bee\artifacts\mvdfrm\UnityEngine.DirectorModule.dll_0EBBBE06C74AE188.mvfrm
Library\Bee\artifacts\mvdfrm\UnityEngine.dll_D6F13C60C54468FA.mvfrm
Library\Bee\artifacts\mvdfrm\UnityEngine.DSPGraphModule.dll_140D1F7039ABB2A9.mvfrm
Library\Bee\artifacts\mvdfrm\UnityEngine.GameCenterModule.dll_627E23AAF05F9483.mvfrm
Library\Bee\artifacts\mvdfrm\UnityEngine.GIModule.dll_4A02F580CFA8DBEE.mvfrm
Library\Bee\artifacts\mvdfrm\UnityEngine.GridModule.dll_5DAE188067E5D6A2.mvfrm
Library\Bee\artifacts\mvdfrm\UnityEngine.HotReloadModule.dll_550C240DE4450A6E.mvfrm
Library\Bee\artifacts\mvdfrm\UnityEngine.ImageConversionModule.dll_D970E850F54BB5B9.mvfrm
Library\Bee\artifacts\mvdfrm\UnityEngine.IMGUIModule.dll_B2081D7BD8F548BF.mvfrm
Library\Bee\artifacts\mvdfrm\UnityEngine.InputLegacyModule.dll_EAD380193FB8118B.mvfrm
Library\Bee\artifacts\mvdfrm\UnityEngine.InputModule.dll_E01E45C588FBD982.mvfrm
Library\Bee\artifacts\mvdfrm\UnityEngine.JSONSerializeModule.dll_9DF318878F4B5250.mvfrm
Library\Bee\artifacts\mvdfrm\UnityEngine.LocalizationModule.dll_198E0A78063F09F5.mvfrm
Library\Bee\artifacts\mvdfrm\UnityEngine.ParticleSystemModule.dll_A2408E5F4780F8B1.mvfrm
Library\Bee\artifacts\mvdfrm\UnityEngine.PerformanceReportingModule.dll_09E92C59F46E406A.mvfrm
Library\Bee\artifacts\mvdfrm\UnityEngine.Physics2DModule.dll_206955F8AA0EE681.mvfrm
Library\Bee\artifacts\mvdfrm\UnityEngine.PhysicsModule.dll_4D4C56FEE461C76F.mvfrm
Library\Bee\artifacts\mvdfrm\UnityEngine.ProfilerModule.dll_4101F73D60A46895.mvfrm
Library\Bee\artifacts\mvdfrm\UnityEngine.RuntimeInitializeOnLoadManagerInitializerModule.dll_4A90FF8C7D0ED94A.mvfrm
Library\Bee\artifacts\mvdfrm\UnityEngine.ScreenCaptureModule.dll_B7DAC60CA3B77EB2.mvfrm
Library\Bee\artifacts\mvdfrm\UnityEngine.SharedInternalsModule.dll_5D8227266C79B109.mvfrm
Library\Bee\artifacts\mvdfrm\UnityEngine.SpriteMaskModule.dll_4BAA963B11CF29FD.mvfrm
Library\Bee\artifacts\mvdfrm\UnityEngine.SpriteShapeModule.dll_72EF92555D6893A4.mvfrm
Library\Bee\artifacts\mvdfrm\UnityEngine.StreamingModule.dll_885853585899A62A.mvfrm
Library\Bee\artifacts\mvdfrm\UnityEngine.SubstanceModule.dll_650367A1A3ECA438.mvfrm
Library\Bee\artifacts\mvdfrm\UnityEngine.SubsystemsModule.dll_B657FC9CE0171210.mvfrm
Library\Bee\artifacts\mvdfrm\UnityEngine.TerrainModule.dll_6792D26DBA20105D.mvfrm
Library\Bee\artifacts\mvdfrm\UnityEngine.TerrainPhysicsModule.dll_A2BB373260C3F33E.mvfrm
Library\Bee\artifacts\mvdfrm\UnityEngine.TextCoreFontEngineModule.dll_EEEC17D6A27DB5C9.mvfrm
Library\Bee\artifacts\mvdfrm\UnityEngine.TextCoreTextEngineModule.dll_36D44E4832016EE7.mvfrm
Library\Bee\artifacts\mvdfrm\UnityEngine.TextRenderingModule.dll_E11A38175AEEFEA7.mvfrm
Library\Bee\artifacts\mvdfrm\UnityEngine.TilemapModule.dll_068F39EED1DCF166.mvfrm
Library\Bee\artifacts\mvdfrm\UnityEngine.TLSModule.dll_63BE9FADF9B22483.mvfrm
Library\Bee\artifacts\mvdfrm\UnityEngine.UIElementsModule.dll_BA965E04E3434E07.mvfrm
Library\Bee\artifacts\mvdfrm\UnityEngine.UIElementsNativeModule.dll_6F2394192B0D92FE.mvfrm
Library\Bee\artifacts\mvdfrm\UnityEngine.UIModule.dll_AD3A4AA09040F980.mvfrm
Library\Bee\artifacts\mvdfrm\UnityEngine.UmbraModule.dll_F47D2A2D9FEA6051.mvfrm
Library\Bee\artifacts\mvdfrm\UnityEngine.UNETModule.dll_12E3447B9CA03624.mvfrm
Library\Bee\artifacts\mvdfrm\UnityEngine.UnityAnalyticsModule.dll_C1DFFF28F3A84AAD.mvfrm
Library\Bee\artifacts\mvdfrm\UnityEngine.UnityConnectModule.dll_49044F1EB7C344E1.mvfrm
Library\Bee\artifacts\mvdfrm\UnityEngine.UnityCurlModule.dll_06E007397925E0D9.mvfrm
Library\Bee\artifacts\mvdfrm\UnityEngine.UnityTestProtocolModule.dll_30302049B80961C7.mvfrm
Library\Bee\artifacts\mvdfrm\UnityEngine.UnityWebRequestAssetBundleModule.dll_640A67131619273E.mvfrm
Library\Bee\artifacts\mvdfrm\UnityEngine.UnityWebRequestAudioModule.dll_81E580387AD90B02.mvfrm
Library\Bee\artifacts\mvdfrm\UnityEngine.UnityWebRequestModule.dll_EB0FEFFB00405038.mvfrm
Library\Bee\artifacts\mvdfrm\UnityEngine.UnityWebRequestTextureModule.dll_CE7AC4AE2E4DF517.mvfrm
Library\Bee\artifacts\mvdfrm\UnityEngine.UnityWebRequestWWWModule.dll_019693A421C12B53.mvfrm
Library\Bee\artifacts\mvdfrm\UnityEngine.VehiclesModule.dll_867EB7864174B123.mvfrm
Library\Bee\artifacts\mvdfrm\UnityEngine.VFXModule.dll_E49D381CD01F8DF0.mvfrm
Library\Bee\artifacts\mvdfrm\UnityEngine.VideoModule.dll_9EB2027FD555D083.mvfrm
Library\Bee\artifacts\mvdfrm\UnityEngine.VirtualTexturingModule.dll_93B0488803BC1389.mvfrm
Library\Bee\artifacts\mvdfrm\UnityEngine.VRModule.dll_000C712631FB7EF8.mvfrm
Library\Bee\artifacts\mvdfrm\UnityEngine.WindModule.dll_F68BD7BAE0C7BF14.mvfrm
Library\Bee\artifacts\mvdfrm\UnityEngine.XRModule.dll_32CB342ABB35CC56.mvfrm
Library\Bee\artifacts\mvdfrm\Unity.Android.Gradle.dll_F10208E7C626DF68.mvfrm
Library\Bee\artifacts\mvdfrm\Unity.Android.Types.dll_84493D76979BBF54.mvfrm
Library\Bee\artifacts\mvdfrm\UnityEditor.Android.Extensions.dll_F8EEB73E29FA3CA8.mvfrm
Library\Bee\artifacts\mvdfrm\UnityEditor.AppleTV.Extensions.dll_44255D7D9B6F0460.mvfrm
Library\Bee\artifacts\mvdfrm\UnityEditor.iOS.Extensions.Xcode.dll_A6488E93ACACC9D6.mvfrm
Library\Bee\artifacts\mvdfrm\UnityEditor.iOS.Extensions.Common.dll_CC41B0E9B71DC705.mvfrm
Library\Bee\artifacts\mvdfrm\UnityEditor.iOS.Extensions.dll_5989C46FA3855750.mvfrm
Library\Bee\artifacts\mvdfrm\UnityEditor.iOS.Extensions.Xcode.dll_CAB451870EE20617.mvfrm
Library\Bee\artifacts\mvdfrm\UnityEditor.Lumin.Extensions.dll_82DD3AEDFC287830.mvfrm
Library\Bee\artifacts\mvdfrm\UnityEditor.OSXStandalone.Extensions.dll_43FB16C0A40139CB.mvfrm
Library\Bee\artifacts\mvdfrm\UnityEditor.UWP.Extensions.dll_07A3D2ACA394E3CB.mvfrm
Library\Bee\artifacts\mvdfrm\UnityEditor.WebGL.Extensions.dll_5DD9229593888130.mvfrm
Library\Bee\artifacts\mvdfrm\UnityEditor.WindowsStandalone.Extensions.dll_DF793D17D3F67420.mvfrm